{
    "name": "dbt_datamocktool",
    "namespace": "mjirv",
    "description": "dbt models for dbt-datamocktool",
    "latest": "0.2.0",
    "assets": {
        "logo": "logos/placeholder.svg"
    }
}